vcd/LerosProcessor.vcd
$date
2025-06-14T19:54+0000
$end
$version
0.2
$end
$comment

$end
$timescale 1ns  $end
$scope module LerosProcessor $end
 $var wire 8 ) io_pc $end
 $var wire 1 5 io_zero $end
 $var wire 16 U io_instrOut $end
 $var wire 1 b datapath $end
 $var wire 1 "] clock $end
 $var wire 1 "` controller $end
 $var wire 16 #7 io_accOut $end
 $var wire 1 #R reset $end
  $scope module datapath.InstructionRegister $end
  $upscope $end
  $scope module datapath.mem $end
  $upscope $end
  $scope module datapath.alu $end
  $upscope $end
  $scope module datapath.pc $end
  $upscope $end
  $scope module controller $end
   $var wire 1 ! _GEN_101 $end
   $var wire 1 " _GEN_46 $end
   $var wire 1 # _GEN_116 $end
   $var wire 1 & _GEN_94 $end
   $var wire 4 ' _GEN_52 $end
   $var wire 4 * _GEN_122 $end
   $var wire 1 + _GEN_73 $end
   $var wire 1 , _GEN_67 $end
   $var wire 1 . _GEN_143 $end
   $var wire 1 / _GEN_88 $end
   $var wire 1 0 _GEN_137 $end
   $var wire 1 2 _GEN_119 $end
   $var wire 4 4 _GEN_131 $end
   $var wire 1 6 _GEN_55 $end
   $var wire 1 7 _GEN_40 $end
   $var wire 4 8 _GEN_104 $end
   $var wire 1 9 _GEN_110 $end
   $var wire 1 : _GEN_125 $end
   $var wire 1 < io_pcAdrSel $end
   $var wire 1 > _GEN_49 $end
   $var wire 1 @ _GEN_61 $end
   $var wire 1 A _GEN_76 $end
   $var wire 4 C _GEN_8 $end
   $var wire 1 E _GEN_107 $end
   $var wire 4 F _GEN_43 $end
   $var wire 1 J io_regWe $end
   $var wire 4 M _GEN_113 $end
   $var wire 1 N _GEN_58 $end
   $var wire 1 R _GEN_37 $end
   $var wire 16 T io_instr $end
   $var wire 1 Y _GEN_142 $end
   $var wire 1 Z io_zero $end
   $var wire 1 [ _GEN_31 $end
   $var wire 1 \ _GEN_25 $end
   $var wire 1 ] _GEN_93 $end
   $var wire 2 ^ _GEN_2 $end
   $var wire 1 d _GEN_145 $end
   $var wire 2 e _GEN_96 $end
   $var wire 1 f _GEN_13 $end
   $var wire 1 g _GEN_130 $end
   $var wire 1 h _GEN_81 $end
   $var wire 1 i _GEN_124 $end
   $var wire 1 m io_arEn $end
   $var wire 1 n _GEN_139 $end
   $var wire 1 q _GEN_75 $end
   $var wire 1 s _GEN_106 $end
   $var wire 1 v _GEN_133 $end
   $var wire 1 x _GEN_90 $end
   $var wire 1 y _GEN_99 $end
   $var wire 1 { _GEN_57 $end
   $var wire 1 | _GEN_84 $end
   $var wire 2 ~ _GEN_78 $end
   $var wire 1 "! _GEN_127 $end
   $var wire 1 "" _GEN_63 $end
   $var wire 1 "# _GEN_148 $end
   $var wire 1 "$ _GEN_112 $end
   $var wire 2 "& io_srcBSel $end
   $var wire 1 "( _GEN_45 $end
   $var wire 1 ") _GEN_39 $end
   $var wire 1 "* _GEN_115 $end
   $var wire 1 ". _GEN_100 $end
   $var wire 1 "/ _GEN_109 $end
   $var wire 1 "0 _GEN_66 $end
   $var wire 2 "2 _GEN_51 $end
   $var wire 1 "3 _GEN_136 $end
   $var wire 2 "4 _GEN_87 $end
   $var wire 1 "6 _GEN_72 $end
   $var wire 1 "7 _GEN_121 $end
   $var wire 1 ": _GEN_54 $end
   $var wire 1 "; _GEN_48 $end
   $var wire 1 "< _GEN_103 $end
   $var wire 1 "= io_accNegative $end
   $var wire 4 "? _GEN_12 $end
   $var wire 2 "A _GEN_69 $end
   $var wire 1 "C _GEN_118 $end
   $var wire 3 "D _GEN_4 $end
   $var wire 1 "F _GEN_33 $end
   $var wire 2 "H _GEN_60 $end
   $var wire 1 "I io_accEn $end
   $var wire 1 "L _GEN_15 $end
   $var wire 4 "M io_aluOp $end
   $var wire 2 "P _GEN_42 $end
   $var wire 1 "Q _GEN_36 $end
   $var wire 1 "V _GEN_98 $end
   $var wire 1 "X _GEN_21 $end
   $var wire 2 "Y _GEN_141 $end
   $var wire 1 "Z _GEN_92 $end
   $var wire 1 "^ _GEN_135 $end
   $var wire 4 "_ _GEN_86 $end
   $var wire 1 "b _GEN_24 $end
   $var wire 1 "k _GEN_80 $end
   $var wire 1 "l _GEN_89 $end
   $var wire 1 "n _GEN_144 $end
   $var wire 4 "o _GEN_95 $end
   $var wire 1 "r _GEN_117 $end
   $var wire 4 "s _GEN_68 $end
   $var wire 1 "w _GEN_74 $end
   $var wire 1 "x _GEN_138 $end
   $var wire 2 "y _GEN_123 $end
   $var wire 1 "{ _GEN_41 $end
   $var wire 1 #! _GEN_147 $end
   $var wire 1 #" io_memWe $end
   $var wire 1 ## _GEN_111 $end
   $var wire 2 #$ _GEN_105 $end
   $var wire 8 #& opcode $end
   $var wire 4 #' _GEN_62 $end
   $var wire 1 #( _GEN_56 $end
   $var wire 2 #* _GEN_132 $end
   $var wire 1 #+ _GEN_83 $end
   $var wire 4 #, _GEN_77 $end
   $var wire 1 #/ _GEN_126 $end
   $var wire 1 #1 _GEN_59 $end
   $var wire 1 #2 _GEN_108 $end
   $var wire 1 #3 _GEN_0 $end
   $var wire 1 #4 _GEN_50 $end
   $var wire 1 #5 _GEN_44 $end
   $var wire 1 #8 _GEN_129 $end
   $var wire 1 #: _GEN_120 $end
   $var wire 2 #; _GEN_114 $end
   $var wire 1 #> io_regWsel $end
   $var wire 1 #? _GEN_71 $end
   $var wire 1 #@ _GEN_65 $end
   $var wire 1 #A _GEN_47 $end
   $var wire 1 #C _GEN_53 $end
   $var wire 1 #G _GEN_26 $end
   $var wire 1 #N _GEN_102 $end
   $var wire 1 #O _GEN_32 $end
   $var wire 1 #S _GEN_82 $end
   $var wire 1 #T _GEN_146 $end
   $var wire 1 #U _GEN_97 $end
   $var wire 1 #W io_pcSel $end
   $var wire 4 #X _GEN_6 $end
   $var wire 1 #] _GEN_17 $end
   $var wire 1 #a _GEN_85 $end
   $var wire 1 #c _GEN_70 $end
   $var wire 1 #d _GEN_64 $end
   $var wire 4 #g _GEN_140 $end
   $var wire 1 #h _GEN_91 $end
   $var wire 1 #i _GEN_134 $end
   $var wire 1 #l _GEN_79 $end
   $var wire 1 #m _GEN_128 $end
  $upscope $end
  $scope module datapath.regFile $end
  $upscope $end
  $scope module datapath.ar $end
  $upscope $end
  $scope module datapath $end
   $var wire 8 $ _T $end
   $var wire 1 ( acc $end
   $var wire 1 3 io_regWe $end
   $var wire 1 O io_accNegative $end
   $var wire 1 V reset $end
   $var wire 2 ` io_srcBSel $end
   $var wire 1 l ar $end
   $var wire 8 "% imm $end
   $var wire 1 "- io_zero $end
   $var wire 1 "5 io_accEn $end
   $var wire 4 "B io_aluOp $end
   $var wire 1 "J io_arEn $end
   $var wire 8 "O io_PC $end
   $var wire 1 "R regFile $end
   $var wire 16 "T io_instrOut $end
   $var wire 16 "h io_accOut $end
   $var wire 1 "q io_regWsel $end
   $var wire 1 "t io_memWe $end
   $var wire 1 #% clock $end
   $var wire 1 #) pc $end
   $var wire 1 #F alu $end
   $var wire 1 #I io_pcSel $end
   $var wire 1 #M io_pcAdrSel $end
   $var wire 1 #Y mem $end
   $var wire 1 #b InstructionRegister $end
    $scope module acc $end
     $var wire 8 % io_accOut $end
     $var wire 8 ; acc $end
     $var wire 8 B io_aluIn $end
     $var wire 1 z reset $end
     $var wire 1 #- io_enable $end
     $var wire 8 #B _GEN_0 $end
     $var wire 1 #J clock $end
     $var wire 1 #Z io_zero $end
    $upscope $end
    $scope module regFile $end
     $var wire 6 G io_adr $end
     $var wire 8 I io_writeData $end
     $var wire 1 Q io_regWe $end
     $var wire 8 "@ regFile $end
     $var wire 1 #= clock $end
     $var wire 8 #K io_readVal $end
      $scope module regFile $end
       $var wire 8 "\ MPORT_1 $end
        $scope module MPORT_1 $end
         $var wire 1 - en $end
         $var wire 8 = data $end
         $var wire 8 "> pipeline_addr_0 $end
         $var wire 1 "N mask $end
         $var wire 1 "W clk $end
         $var wire 1 "d pipeline_valid_0 $end
         $var wire 1 "i valid $end
         $var wire 8 #0 addr $end
         $var wire 8 #Q pipeline_data_0 $end
        $upscope $end
        $scope module MPORT $end
         $var wire 1 "U clk $end
         $var wire 8 "[ addr $end
         $var wire 1 #L en $end
         $var wire 8 #[ data $end
        $upscope $end
      $upscope $end
    $upscope $end
    $scope module InstructionRegister $end
     $var wire 8 H mem $end
     $var wire 1 S _GEN_6 $end
     $var wire 8 W io_addr $end
     $var wire 1 r _GEN_0 $end
     $var wire 8 w _GEN_3 $end
     $var wire 1 ", clock $end
     $var wire 1 "g _GEN_5 $end
     $var wire 9 "u _T $end
     $var wire 16 "z io_instrOut $end
     $var wire 8 "| _GEN_2 $end
     $var wire 1 "~ reset $end
     $var wire 8 #V _GEN_1 $end
     $var wire 16 #j _GEN_4 $end
      $scope module mem $end
        $scope module lowByte $end
         $var wire 1 1 clk $end
         $var wire 8 K addr $end
         $var wire 1 j en $end
         $var wire 8 "9 data $end
        $upscope $end
        $scope module highByte $end
         $var wire 8 c addr $end
         $var wire 8 "e data $end
         $var wire 1 #E en $end
         $var wire 1 #P clk $end
        $upscope $end
      $upscope $end
    $upscope $end
    $scope module ar $end
     $var wire 8 ? io_acc $end
     $var wire 1 P io_arEn $end
     $var wire 8 X io_arOut $end
     $var wire 1 "8 clock $end
     $var wire 8 "f ar $end
     $var wire 1 #. reset $end
     $var wire 8 #D _GEN_0 $end
    $upscope $end
    $scope module mem $end
     $var wire 1 D clock $end
     $var wire 8 o io_writeData $end
     $var wire 8 } mem $end
     $var wire 1 "K io_memWe $end
     $var wire 8 "v io_data $end
     $var wire 8 #9 io_adr $end
      $scope module mem $end
       $var wire 8 a MPORT $end
        $scope module MPORT $end
         $var wire 8 L data $end
         $var wire 8 "' pipeline_data_0 $end
         $var wire 1 "1 pipeline_valid_0 $end
         $var wire 1 "E clk $end
         $var wire 1 "c mask $end
         $var wire 1 "p valid $end
         $var wire 1 #< en $end
         $var wire 8 #H addr $end
         $var wire 8 #k pipeline_addr_0 $end
        $upscope $end
        $scope module MPORT_1 $end
         $var wire 8 p data $end
         $var wire 1 "G en $end
         $var wire 1 #^ clk $end
         $var wire 8 #f addr $end
        $upscope $end
      $upscope $end
    $upscope $end
    $scope module alu $end
     $var wire 8 _ io_b $end
     $var wire 7 t _GEN_0 $end
     $var wire 8 "a io_a $end
     $var wire 8 "} io_result $end
     $var wire 1 #6 _T $end
     $var wire 4 #e io_aluOp $end
    $upscope $end
    $scope module pc $end
     $var wire 1 k io_pcAdrSel $end
     $var wire 1 u clock $end
     $var wire 8 "+ io_acc $end
     $var wire 8 "S io_imm $end
     $var wire 1 "j reset $end
     $var wire 8 "m pc $end
     $var wire 8 #\ io_pcOut $end
     $var wire 9 #_ _T $end
     $var wire 1 #` io_pcSel $end
    $upscope $end
  $upscope $end
  $scope module datapath.acc $end
  $upscope $end
$upscope $end
$enddefinitions $end
$dumpvars
0R
0"1
0#c
0#1
b00000000 #k
b00 "A
b00000000 #9
b0000 "B
b00000000 "m
0#W
0m
b00 #;
0"r
0#S
0#!
0D
0/
0"#
b00000000 ;
0z
0"n
0#O
0r
0]
0"Q
0#2
b00 ^
0@
0+
0"<
b00000000 a
b00000000 L
b0000 "M
b00000000 "[
0#b
0"l
0#M
0"d
0>
b00 "H
0#^
b00000000 "%
0l
0"`
0"K
0#A
0O
0"C
0:
0".
b0000000000000000 T
b00000000 p
b00000000 )
0"*
b00000000 "f
0#m
0#P
0"=
b0000000000000000 "h
b00000000 #&
0#a
0"k
0Z
0#/
b00000000 I
b000000000 "u
0k
0#@
b00000000 #V
b0000 "_
1#E
09
0N
0"-
1"G
0"~
b00000000 w
b00000000 o
b00 "&
b00000000 =
0|
b00100001 H
0J
0-
b0000 M
0"]
0#>
b00000000 #[
b00000000 "e
0#:
b00000000 "v
b00000000 "a
b00000000 #B
0#`
b00000000 "'
0n
0Y
0#.
0<
b00000000 "@
0"{
1#L
0"I
1"c
1"N
0",
0#
b0000000000000000 #j
b0000000 t
b00000000 #f
b00000000 #Q
b00 "Y
b00000000 "S
0#Z
0h
0"q
b00 ~
0#R
0#(
0#=
b00000000 W
b00000000 "O
b00000000 #0
b000 "D
0y
0"X
0#N
0\
b00 e
0";
b00000000 K
0"L
0"7
0""
b0000 '
0#-
0&
b00 "y
0#]
0"g
0V
0"J
0#+
b00 #$
0"x
0#Y
0g
0#<
0"F
05
0")
b0000000000000000 "T
b00000000 #D
0x
b00000000 $
0[
0":
0#l
b000000000 #_
1j
b0000 #,
0#h
0v
0"j
0"U
0#6
0"8
06
0#d
0!
b00000000 "+
0#G
0"w
b0000 #X
0{
0f
0"Z
0"E
0Q
0"(
b00000101 }
0#i
b0000 "s
0b
0"V
0E
00
0"$
0(
b00000000 "}
b00 #*
b00 "4
b0000 #g
0u
0#J
0#5
0"i
b0000 #'
b00000000 "\
0q
0#F
0i
b0000 8
0"3
0#)
07
0"
b0000000000000000 #7
b00000000 X
b0000000000000000 U
0P
0#%
0"/
b0000 4
03
b00000000 ?
b00000000 "9
0"t
0#U
0"W
0##
0#8
b0000 *
01
b00 "P
b00000000 "|
b00000000 #H
0"p
0#I
0#4
b0000 C
b00 `
0"6
0"!
b00000000 c
b00000000 ">
0S
b0000000000000000 "z
b00000000 _
b00000000 B
b00000000 %
0d
02
0"b
0#C
0"0
b00000000 #K
b0000 "?
0.
0#T
0"^
0#?
b0000 F
0#"
b000000 G
b00000000 #\
b00 "2
b0000 #e
b0000 "o
0s
0"R
0#3
0A
0,
0"5
$end
#0
1#U
b1011 "_
b1011 4
b1011 "B
1#l
b00000101 "v
b00000001 K
b01 "Y
b1011 M
1"j
b1011 *
1#.
b1011 "M
b11 ^
b00000101 I
b01 "2
b01 `
b1010 C
b01 #*
b01 "4
1"I
1Z
b00000101 =
b1011 #,
b0010000100000000 T
b1000 #X
1#C
b00100001 #&
1s
1V
1#Z
b01 "y
1"*
b1011 "s
b01 "A
b000000001 "u
15
b01 #$
b01 ~
1i
b01 "&
b1011 "o
b01 #;
1/
1#3
b1011 #g
1#R
b0010000100000000 "T
b1011 "?
1z
b01 e
1#c
b00100001 "e
1v
b1011 #e
1Y
b1011 '
1"5
1"-
b00000101 p
b000000010 #_
1"~
1#-
b110 "D
b0010000100000000 U
1@
b1011 8
b1011 #'
b0010000100000000 "z
b01 "H
#1
1u
b0010000100000000 #j
1",
1"W
1D
b00100001 "|
1#^
1#P
b00000101 #Q
1#%
11
1"E
1#J
1"U
1"8
1#=
1"]
#6
0u
0",
0"W
0D
0#^
0#P
0#%
01
0"E
0#J
0"U
0"8
0#=
0"]
#11
1u
1",
1"W
1D
1#^
1#P
1#%
11
1"E
1#J
1"U
1"8
1#=
1"]
#16
0u
0",
0"W
0D
0#^
0#P
0#%
01
0"E
0#J
0"U
0"8
0#=
0"]
#21
1u
1",
1"W
1D
1#^
1#P
1#%
11
1"E
1#J
1"U
1"8
1#=
1"]
#26
0u
0",
0"W
0D
0#^
0#P
0#%
01
0"E
0#J
0"U
0"8
0#=
0"]
#31
1u
1",
1"W
1D
1#^
1#P
1#%
11
1"E
1#J
1"U
1"8
1#=
1"]
#36
0u
0",
0"W
0D
0#^
0#P
0#%
01
0"E
0#J
0"U
0"8
0#=
0"]
#41
1u
1",
1"W
1D
1#^
1#P
1#%
11
1"E
1#J
1"U
1"8
1#=
1"]
#46
0u
0",
0"W
0D
0#^
0#P
0"~
0#%
0#R
01
0"E
0#J
0V
0z
0"U
0"j
0#.
0"8
0#=
0"]
#51
0#U
b0000 "_
b0000 4
1"W
1##
1#8
b0000 "B
1S
0#l
b00000011 K
1#:
b00 "Y
b0000 M
1"U
b0000 *
1#6
b0000 "M
1"8
1{
b10 ^
b00000010 "O
1u
b00 "2
b00 `
b0000 C
b00 #*
b00 "4
0"I
1#^
b0000 #,
1q
b0101000000000000 T
b0000 #X
0#C
1"E
b01010000 #&
1"0
0s
b00 "y
1#=
0"*
1m
b00000010 #\
1P
b0000 "s
b00 "A
1",
b000000011 "u
b00 #$
1";
b00 ~
0i
b00 "&
1#P
b0000 "o
0/
b00 #;
0#3
b00000010 c
b0000 #g
11
1#J
b0101000000000000 "T
b0000 "?
b00 e
1]
1|
0#c
b00000010 "m
1#N
b01010000 "e
0v
b0000 #e
0Y
1D
b0000 '
1"J
0"5
1[
b000000100 #_
b00000010 )
0#-
1#%
1r
b000 "D
b0101000000000000 U
0@
1"x
b0000 8
b0000 #'
1")
b00000010 W
b0101000000000000 "z
1"]
b00 "H
1#!
#56
0u
0",
0"W
0D
0#^
0#P
0#%
01
0"E
0#J
0"U
0"8
0#=
0"]
#61
b0101000000000000 #j
1#U
b1011 "_
b1011 4
1"W
0##
0#8
b1011 "B
1#l
b00000101 K
0#:
b10 "Y
b1011 M
1#4
1"U
b1011 *
0#6
b1011 "M
1"8
0{
b00000000 I
1"l
b00000100 "O
1u
b10 "2
b10 `
1.
b10 #*
b10 "4
1"I
1E
1#^
b00000101 "}
b00000000 =
b1011 #,
0q
b0110000000000000 T
1#C
1"E
b01100000 #&
0"0
1s
b10 "y
1#=
1"*
0m
b00000100 #\
1"{
0P
b1011 "s
1#?
b10 "A
1",
b00000010 #V
b000000101 "u
b10 #$
0";
b10 ~
1i
b10 "&
1#P
b1011 "o
1/
b10 #;
b00000100 c
b1011 #g
1"q
b1011 F
11
1#J
b0110000000000000 "T
1#5
b10 e
1#i
0]
1"k
1"V
0|
b00000101 _
1#c
b00000100 "m
0#N
b00000101 B
b01100000 "e
b10 "P
1#1
1v
b1011 #e
1Y
1D
b01010000 "|
b1011 '
0"J
1"5
0[
b000000110 #_
b00000100 )
b00000101 #B
1#-
1#%
b0110000000000000 U
1@
0"x
b1011 8
1#
b1011 #'
0")
b00000100 W
b0110000000000000 "z
1:
1"]
b10 "H
1#>
0#!
#66
0u
0",
0"W
0D
0#^
0#P
0#%
01
0"E
0#J
0"U
0"8
0#=
0"]
#71
b0000 4
b00000111 "v
b0000 M
b00000010 #f
b00000000 #Q
b00000001 "S
1y
b000001 G
b0000 *
b0000 "M
b00000101 I
b00000110 "O
1":
b00000001 #0
1u
b00 "2
b00 #*
b00 "4
0"I
0#C
1"E
b00110000 #&
1"(
b00000110 #\
b00000101 ;
1"^
1",
b00000100 #V
b000000111 "u
05
1J
b00000010 #9
b00 #$
b00 ~
b00 "&
b00000101 L
1#P
b0000 "o
b00 #;
b00000110 c
b0000 #g
b0000 F
11
1#J
b0011000000000001 "T
0#5
1"i
1""
1#/
b00000110 "m
0v
b0000 #e
0Y
b0000 '
1x
0"-
b0011000000000001 U
0@
1"F
b0000 #'
1"r
1"]
b00000101 "+
1Q
b0110000000000000 #j
0#U
b0000 "_
1"W
b0000 "B
1h
b00000001 "%
0#l
b00000111 K
1"n
b00 "Y
1"6
1"U
1#6
1"8
b00 `
1#2
b00000101 o
0Z
1#^
b0000000000000101 "h
b00000101 =
b0000 #,
b0011000000000001 T
b00000101 ?
0s
0#Z
b00 "y
b00000001 $
1#=
0"*
b0000 "s
13
b00 "A
0i
0/
b00 e
b0000000000000101 #7
b00000001 "9
b0000010 t
b00000000 _
0#c
1-
b00110000 "e
b00 "P
b00000101 %
1D
b01100000 "|
b00000010 #H
0"5
b00000111 p
b000001000 #_
b00000110 )
b00000101 "a
0#-
1#%
b0000 8
b00000001 "[
b00000110 W
b0011000000000001 "z
b00 "H
#76
0u
0",
0"W
0D
0#^
0#P
0#%
01
0"E
0#J
0"U
0"8
0#=
0"]
#81
b0011000000000001 #j
1",
1"W
b00000010 #k
b00000110 #V
b000001001 "u
b00001001 K
b00000101 "'
1#P
b00000101 #Q
b00001000 c
b00000001 ">
11
1#J
b00000101 #K
1"U
1"8
1"d
b00001000 "O
b00000101 _
b00001000 "m
b00001010 B
1u
1D
b00000001 w
b00110000 "|
1#^
b00001010 "}
b000001010 #_
b00001000 )
1#%
1"E
1#=
b00001000 W
b00000101 #[
1"]
b00001000 #\
#86
0u
0",
0"W
0D
0#^
0#P
0#%
01
0"E
0#J
0"U
0"8
0#=
0"]
#91
b00001010 "m
1u
1",
1"W
b00001000 #V
b000001011 "u
1D
b00001011 K
1#^
1#P
b000001100 #_
b00001010 )
1#%
b00001010 c
11
1"E
1#J
1"U
1"8
1#=
b00001010 W
1"]
b00001010 #\
b00001010 "O
#96
0u
0",
0"W
0D
0#^
0#P
0#%
01
0"E
0#J
0"U
0"8
0#=
0"]
#101
b1011 4
b1011 M
0#4
0y
b1011 *
b1011 "M
b11 ^
b00000111 I
0"l
b00001100 "O
0":
1u
b01 "2
b1010 C
b01 #*
b01 "4
1"I
1#C
1"E
b00100001 #&
0"(
b00001100 #\
0"{
0#?
0"^
1",
b00001010 #V
b000001101 "u
0J
b01 #$
b01 ~
b01 "&
1#P
b1011 "o
b01 #;
b00001100 c
b1011 #g
11
1#J
b0010000100000001 "T
b1011 "?
0"i
0""
0#/
b00001100 "m
1v
b1011 #e
1Y
b1011 '
0x
b0010000100000001 U
1@
0#
0"F
b1011 #'
0:
0"r
1"]
0#>
0Q
1#U
b1011 "_
1"W
b1011 "B
0h
1#l
b00001101 K
0"n
b01 "Y
0"6
1"U
0#6
1"8
b01 `
0.
0#2
0E
1#^
b00000001 "}
b00000111 =
b1011 #,
b0010000100000001 T
b1000 #X
1s
b01 "y
1#=
1"*
b1011 "s
03
b01 "A
1i
1/
1#3
0"q
b01 e
0#i
0"k
0"V
b00000001 _
1#c
b00000001 B
0-
b00100001 "e
0#1
1D
1"5
b000001110 #_
b00001100 )
b00000001 #B
1#-
1#%
b110 "D
b1011 8
b00001100 W
b0010000100000001 "z
b01 "H
#106
0u
0",
0"W
0D
0#^
0#P
0#%
01
0"E
0#J
0"U
0"8
0#=
0"]
#111
b0000 4
b00000101 "v
b0000 M
b00000000 #f
b00000111 #Q
b00000000 "S
b000000 G
b00000000 #K
b0000 *
b0000 "M
1{
b10 ^
b00000101 I
0"d
b00001110 "O
b00000000 #0
1u
b00 "2
b0000 C
b00 #*
b00 "4
0"I
0#C
1"E
b01010000 #&
1m
b00001110 #\
b00000001 ;
1",
b00001100 #V
b000001111 "u
b00000000 #9
b00 #$
1";
b00 ~
b00 "&
b00000001 L
1#P
b0000 "o
b00 #;
b00001110 c
b0000 #g
11
1#J
b0101000000000000 "T
b0000 "?
1]
1|
b00001110 "m
1#N
0v
b0000 #e
0Y
b0000 '
b0101000000000000 U
0@
1"x
b00000001 #D
b0000 #'
1"]
1#!
b00000001 "+
b0010000100000001 #j
0#U
b0000 "_
1"W
1##
1#8
b0000 "B
b00000000 "%
0#l
b00001111 K
1#:
b00 "Y
1"U
1#6
1"8
b00 `
b00000001 o
1#^
b0000000000000001 "h
b00000101 =
b0000 #,
1q
b0101000000000000 T
b00000001 ?
b0000 #X
1"0
0s
b00 "y
b00000000 $
1#=
0"*
1P
b0000 "s
b00 "A
0i
0/
0#3
b00 e
b0000000000000001 #7
b00000000 "9
b0000000 t
b00000000 _
0#c
b01010000 "e
b00000001 %
1D
b00100001 "|
b00000000 #H
1"J
0"5
b00000101 p
1[
b000010000 #_
b00001110 )
b00000001 "a
0#-
1#%
b000 "D
b0000 8
b00000000 "[
1")
b00001110 W
b0101000000000000 "z
b00000000 #[
b00 "H
#116
0u
0",
0"W
0D
0#^
0#P
0#%
01
0"E
0#J
0"U
0"8
0#=
0"]
#121
b1011 4
b00000011 "v
b1011 M
b00000001 #f
b00000101 #Q
1#4
b00000000 ">
b1011 *
b1011 "M
0{
b00000001 I
1"l
b00010000 "O
1u
b10 "2
b00000001 X
b00000001 "f
b10 #*
b10 "4
1"I
1#C
1"E
b01100000 #&
0m
b00010000 #\
1"{
1#?
1",
b00000000 #k
b00001110 #V
b000010001 "u
b00000001 #9
b10 #$
0";
b10 ~
b10 "&
1#P
b1011 "o
b10 #;
b00010000 c
b1011 #g
b1011 F
11
1#J
b0110000000000000 "T
1#5
0]
0|
b00010000 "m
0#N
1v
b1011 #e
1Y
b1011 '
b0110000000000000 U
1@
0"x
1#
b1011 #'
1:
1"]
1#>
0#!
b0101000000000000 #j
1#U
b1011 "_
1"W
0##
0#8
b1011 "B
1#l
b00010001 K
0#:
b10 "Y
b00000001 "'
1"U
0#6
1"8
b10 `
1.
b00000000 w
1E
1#^
b00000011 "}
b00000001 =
b1011 #,
0q
b0110000000000000 T
0"0
1s
b10 "y
1#=
1"*
0P
b1011 "s
b10 "A
1i
1/
1"q
b10 e
1#i
1"k
1"V
b00000011 _
1#c
b00000011 B
b01100000 "e
b10 "P
1#1
1D
b01010000 "|
b00000001 #H
0"J
1"5
b00000011 p
0[
b000010010 #_
b00010000 )
b00000011 #B
1#-
1#%
b1011 8
0")
b00010000 W
b0110000000000000 "z
b10 "H
#126
0u
0",
0"W
0D
0#^
0#P
0#%
01
0"E
0#J
0"U
0"8
0#=
0"]
#131
b0000 4
b00000010 "v
b0000 M
b00000011 #f
b00000001 #Q
0#4
b00000001 "S
b000001 G
b00000101 #K
b0000 *
b0000 "M
b00000010 I
0"l
b00010010 "O
b00000001 #0
1u
b00 "2
b00 #*
b00 "4
0#C
1"E
b00001000 #&
b00010010 #\
0"{
b00000011 ;
0#?
1",
b00000001 #k
b00010000 #V
b000010011 "u
b00000011 #9
b00 #$
b00 ~
b00 "&
b00000011 L
1#P
b0000 "o
b00 #;
b00010010 c
b0000 #g
b0000 F
11
1#J
b0000100000000001 "T
0#5
b00010010 "m
0v
b0000 #e
b0000 '
b0000100000000001 U
0@
0#
b0000 #'
0:
1"]
0#>
b00000011 "+
b0110000000000000 #j
0#U
b0000 "_
1"W
b0000 "B
b00000001 "%
0#l
b00010011 K
b00 "Y
1"U
1#6
1"8
b00 `
0.
b00000011 o
0E
1#^
b0000000000000011 "h
b00000010 =
b00001000 "}
b0000 #,
b0000100000000001 T
b00000011 ?
0s
b00 "y
b00000001 $
1#=
0"*
b0000 "s
b00 "A
0i
0/
0"q
b00 e
0#i
0"k
b0000000000000011 #7
0"V
b00000001 "9
b0000001 t
b00000101 _
0#c
b00001000 B
b00001000 "e
b00 "P
b00000011 %
0#1
1D
b01100000 "|
b00000011 #H
b00000010 p
b000010100 #_
b00010010 )
b00000011 "a
b00001000 #B
1#%
b0000 8
b00000001 "[
b00010010 W
b0000100000000001 "z
b00000101 #[
b00 "H
#136
0u
0",
0"W
0D
0#^
0#P
0#%
01
0"E
0#J
0"U
0"8
0#=
0"]
#141
1Q
b0000100000000001 #j
1"W
1h
b00010101 K
1"n
b00000011 "'
b00000010 #Q
1#4
b00000001 ">
1"6
1y
1"U
1"8
b00001000 I
1"l
b00010100 "O
1":
1u
1.
1#2
0"I
b00000001 w
b00001000 o
1E
1#^
b0000000000001000 "h
b00001000 =
b00001101 "}
b0011000000000001 T
b00001000 ?
1"E
b00110000 #&
1"(
1#=
b00010100 #\
1"{
b00001000 ;
1#?
1"^
13
1",
b00000011 #k
b00010010 #V
b000010101 "u
1J
b00001000 L
1#P
b00010100 c
1"q
11
1#J
b0011000000000001 "T
1"i
1""
1#i
1"k
b0000000000001000 #7
1"V
1#/
b0000100 t
b00010100 "m
b00001101 B
1-
b00110000 "e
1#1
b00001000 %
0Y
1D
b00001000 "|
1x
0"5
b000010110 #_
b00010100 )
b00001000 "a
0#-
1#%
b0011000000000001 U
1#
1"F
b00010100 W
b0011000000000001 "z
1:
1"r
1"]
1#>
b00001000 "+
#146
0u
0",
0"W
0D
0#^
0#P
0#%
01
0"E
0#J
0"U
0"8
0#=
0"]
#151
b1011 4
b00000000 "v
b1011 M
b00000101 #f
b00001000 #Q
0#4
b00000010 "S
0y
b000010 G
b00000000 #K
b1011 *
b1011 "M
b11 ^
b00000000 I
0"l
1"d
b00010110 "O
0":
b00000010 #0
1u
b01 "2
b1010 C
b01 #*
b01 "4
1"I
1#C
1"E
b00100001 #&
0"(
b00010110 #\
0"{
0#?
0"^
1",
b00010100 #V
b000010111 "u
0J
b00000101 #9
b01 #$
b01 ~
b01 "&
1#P
b1011 "o
b01 #;
b00010110 c
b1011 #g
11
1#J
b0010000100000010 "T
b1011 "?
0"i
0""
0#/
b00010110 "m
1v
b1011 #e
1Y
b1011 '
0x
b0010000100000010 U
1@
0#
0"F
b1011 #'
0:
0"r
1"]
0#>
0Q
b0011000000000001 #j
1#U
b1011 "_
1"W
b1011 "B
0h
b00000010 "%
1#l
b00010111 K
0"n
b01 "Y
b00001000 "'
0"6
1"U
0#6
1"8
b01 `
0.
0#2
0E
1#^
b00000010 "}
b00000000 =
b1011 #,
b0010000100000010 T
b1000 #X
1s
b01 "y
b00000010 $
1#=
1"*
b1011 "s
03
b01 "A
1i
1/
1#3
0"q
b01 e
0#i
0"k
0"V
b00000010 "9
b00000010 _
1#c
b00000010 B
0-
b00100001 "e
0#1
1D
b00110000 "|
b00000101 #H
1"5
b00000000 p
b000011000 #_
b00010110 )
b00000010 #B
1#-
1#%
b110 "D
b1011 8
b00000010 "[
b00010110 W
b0010000100000010 "z
b00000000 #[
b01 "H
#156
0u
0",
0"W
0D
0#^
0#P
0#%
01
0"E
0#J
0"U
0"8
0#=
0"]
